// Jest Snapshot v1, https://goo.gl/fbAQLP

exports[`Sut renders without crashing 1`] = `
ShallowWrapper {
  "length": 1,
  Symbol(enzyme.__root__): [Circular],
  Symbol(enzyme.__unrendered__): <Sut
    sutHostname="test.lab"
/>,
  Symbol(enzyme.__renderer__): Object {
    "batchedUpdates": [Function],
    "getNode": [Function],
    "render": [Function],
    "simulateEvent": [Function],
    "unmount": [Function],
  },
  Symbol(enzyme.__node__): Object {
    "instance": null,
    "key": null,
    "nodeType": "host",
    "props": Object {
      "children": Array [
        "Hostname: ",
        "test.lab",
        " -- TestSuiteID: ",
        undefined,
      ],
      "className": "sut",
    },
    "ref": null,
    "rendered": Array [
      "Hostname: ",
      "test.lab",
      " -- TestSuiteID: ",
      undefined,
    ],
    "type": "h3",
  },
  Symbol(enzyme.__nodes__): Array [
    Object {
      "instance": null,
      "key": null,
      "nodeType": "host",
      "props": Object {
        "children": Array [
          "Hostname: ",
          "test.lab",
          " -- TestSuiteID: ",
          undefined,
        ],
        "className": "sut",
      },
      "ref": null,
      "rendered": Array [
        "Hostname: ",
        "test.lab",
        " -- TestSuiteID: ",
        undefined,
      ],
      "type": "h3",
    },
  ],
  Symbol(enzyme.__options__): Object {
    "adapter": ReactSixteenAdapter {
      "options": Object {
        "enableComponentDidUpdateOnSetState": true,
      },
    },
  },
}
`;

exports[`SutList renders without crashing 1`] = `
ShallowWrapper {
  "length": 1,
  Symbol(enzyme.__root__): [Circular],
  Symbol(enzyme.__unrendered__): <SutList
    edit={[Function]}
    suts={Array []}
/>,
  Symbol(enzyme.__renderer__): Object {
    "batchedUpdates": [Function],
    "getNode": [Function],
    "render": [Function],
    "simulateEvent": [Function],
    "unmount": [Function],
  },
  Symbol(enzyme.__node__): Object {
    "instance": null,
    "key": null,
    "nodeType": "host",
    "props": Object {
      "children": Array [],
      "className": "testList",
    },
    "ref": null,
    "rendered": Array [],
    "type": "ul",
  },
  Symbol(enzyme.__nodes__): Array [
    Object {
      "instance": null,
      "key": null,
      "nodeType": "host",
      "props": Object {
        "children": Array [],
        "className": "testList",
      },
      "ref": null,
      "rendered": Array [],
      "type": "ul",
    },
  ],
  Symbol(enzyme.__options__): Object {
    "adapter": ReactSixteenAdapter {
      "options": Object {
        "enableComponentDidUpdateOnSetState": true,
      },
    },
  },
}
`;
